{
  "hospitals": {
    "SJH": ["St Johns Hospital", "St. Johns Hospital", "St John's Hospital", "St. John's Hospital", "St Johns", "St. Johns", "St. John's", "St. John's"],
    "SMH": ["St Michaels Hospital", "St. Michaels Hospital", "St Michael's Hospital", "St. Michael's Hospital", "St Michaels", "St. Michaels", "St. Michael's", "St. Michael's"],
    "RIE": ["Edinburgh Royal Infirmary", "Royal Infirmary of Edinburgh", "Royal Infirmary Edinburgh", "Royal Infirmary"],
    "WGH": ["Western General", "Western General Hospital"],
    "LIBERTON": ["Liberton Day Hospital", "Liberton Hospital", "Liberton"],
    "ELLENS GLEN": ["Ellen's Glen", "Ellens Glen"]
  },

  "wards": ["[Ww]ard[:]?\\s*\\d+", "[Ww]d[:]?\\s*\\d+", "rowan ward", "willow ward", "forsythe ward", "ros[es]bank ward", "emerson ward", "edenview ward", "loanes[k]? ward", "canaan ward", "duncan ward", "murphy ward", "arran ward", "thistle ward", "hawthorn ward"],
  "relations": {
    "brother": ["Monday", "Mon", "Tuesday", "Tues", "Wednesday", "Wed", "Thursday", "Thur", "Thurs", "Friday", "Fri", "Saturday", "Sat", "Sunday", "Sun",
                "Brother", "Clopixol", "Edinburgh", "Carers", "Mr", "Linlithgow", "Summary", "Mc"],
    "sister": ["Monday", "Mon", "Tuesday", "Tues", "Wednesday", "Wed", "Thursday", "Thur", "Thurs", "Friday", "Fri", "Saturday", "Sat", "Sunday", "Sun",
               "Brother", "Care", "Edinburgh", "Friday", "In", "Linlithgow", "Niece", "Mr", "Neice", "No", "Orthopaedic", "Po", "Pt",
               "Sister"],
    "daughter": ["Abx", "Approx", "Australia", "Ax", "Bathgage", "Care", "Clinic", "Community", "Confirms", "Brought", "Husband", "Inverness", 
                 "Netherlands", "Daughters", "Daughter", "Dr", "Edinburgh", "England", "Ls", "Gp", "He", "Holland", "London", "Mon",
                 "Monday", "Mon", "Tuesday", "Tues", "Wednesday", "Wed", "Thursday", "Thur", "Thurs", "Friday", "Fri", "Saturday", "Sat", "Sunday", "Sun",
                 "Mr", "Ms", "Mrs", "Miss", "No", "Optician", "Med", "Peebles", "Phoned", "Physiotherapists", "Many", "Ns",
                 "Po", "Poc", "Power", "Pt", "Reablement", "Re", "Risperidone", "Settled", "Single", "Carer", "St", "Suffolk", "Surrey", "Pay", 
                 "Wife", "Tel", "Son", "Singapore", "Livingston", "Retrospective", "Insulin", "Dunbar", "Granddaughter", "Telecare",
                 "Urgent", "Ass", "Catheter"],
    "son": ["America", "Australia", "Ax", "Edinburgh", "Benidorm", "Christmas", "Dr", "Dunfermline", "England", 
            "Monday", "Mon", "Tuesday", "Tues", "Wednesday", "Wed", "Thursday", "Thur", "Thurs", "Friday", "Fri", "Saturday", "Sat", "Sunday", "Sun",
            "Japan", "Ls", "Mr", "Mrs", "No", "Ns", "Orthotic", "Getting", "Po", "Power", "Pt", "Shetland", "Social", "Son", "Sons",
            "Sonographer", "South", "Tel", "Tokyo", "Uganda", "Welfare"],
    "wife": ["Ao", "Birmingham", "Bungalow", "Care", "Dakeith", "Dementia", "Eastlothian", "July", "Ls", "Hx", "Grandson", "Dalkieth",
             "Monday", "Mon", "Tuesday", "Tues", "Wednesday", "Wed", "Thursday", "Thur", "Thurs", "Friday", "Fri", "Saturday", "Sat", "Sunday", "Sun",
              "Mrs", "Vocal", "Nil", "November", "Nursing", "Parkinson", "Son", "No", "Vitamin", "Wifes", "Po", "Dr", "Mr", "Wife"],
    "husband": ["Alzeimers", "Asda", "Confirmed", "Current", "Dr", "Diagnoses", "Ferryfield", "Lactulose", "Happy", "Husband",
                "Midlothian", "Livingstone", "Vocal", "Sunny", "Tramadol", "Dec", "Po", "Sakina", "Mum", "No", "Mr"],
    "niece": ["Monday", "Mon", "Tuesday", "Tues", "Wednesday", "Wed", "Thursday", "Thur", "Thurs", "Friday", "Fri", "Saturday", "Sat", "Sunday", "Sun",
              "Fridays", "Birmingham", "Care", "Homecare", "Po", "Husband", "Nephew", "Mc", "Mrs", "Niece", "Scotland", "Peebles"],
    "nephew": ["Nephew", "Mr", "Dunbar", "England", "Po", "Nephews"],
    "in law": ["Both", "Edinburgh", "Mrs", "Mobilises", "She"],
    "neighbour": ["Dr", "Neighbour", "Neighbours", "Neighbourhood", "Pt", "Monday", "Mon", "Tuesday", "Tues", "Wednesday", "Wed", "Thursday", 
                  "Thur", "Thurs", "Friday", "Fri", "Saturday", "Sat", "Sunday", "Sun"],
    "partner": ["Partners", "Partner", "Partnership"],
    "friend": ["America", "Edinburgh", "Friend", "Friends", "Hash", "January", "Livingston", "Miss", "Dorset", "Mrs", "Peebles", "Pitlochry",
               "Kirkcaldy"],
    "known as": [],
    "kin": ["Ax"],
    "nok": ["Clarify", "Brother", "Edinburgh", "Fultium", "Daughter", "Dermol", "Hypromellose", "Home", "Husband", "Kwill", "Medication",
            "Mr", "Mrs", "No", "Patient", "Trak", "Neice", "Pt", "Son", "Patients", "Warden",
            "Monday", "Mon", "Tuesday", "Tues", "Wednesday", "Wed", "Thursday", "Thur", "Thurs", "Friday", "Fri", "Saturday", "Sat", "Sunday", "Sun"]
    
  }
}